1.220000000000000000e+02
1.160000000000000000e+02
1.140000000000000000e+02
1.120000000000000000e+02
1.090000000000000000e+02
1.020000000000000000e+02
1.010000000000000000e+02
1.000000000000000000e+02
9.800000000000000000e+01
9.700000000000000000e+01
1.210000000000000000e+02
1.200000000000000000e+02
1.190000000000000000e+02
1.180000000000000000e+02
1.170000000000000000e+02
1.150000000000000000e+02
1.130000000000000000e+02
1.110000000000000000e+02
1.100000000000000000e+02
1.080000000000000000e+02
1.070000000000000000e+02
1.060000000000000000e+02
1.050000000000000000e+02
1.040000000000000000e+02
1.030000000000000000e+02
9.900000000000000000e+01
1.140000000000000000e+02
1.120000000000000000e+02
1.090000000000000000e+02
1.000000000000000000e+02
9.800000000000000000e+01
9.700000000000000000e+01
1.220000000000000000e+02
1.210000000000000000e+02
1.200000000000000000e+02
1.190000000000000000e+02
1.180000000000000000e+02
1.170000000000000000e+02
1.160000000000000000e+02
1.150000000000000000e+02
1.130000000000000000e+02
1.110000000000000000e+02
1.100000000000000000e+02
1.080000000000000000e+02
1.070000000000000000e+02
1.060000000000000000e+02
1.050000000000000000e+02
1.040000000000000000e+02
1.030000000000000000e+02
1.020000000000000000e+02
1.010000000000000000e+02
9.900000000000000000e+01
1.220000000000000000e+02
1.210000000000000000e+02
1.200000000000000000e+02
1.190000000000000000e+02
1.180000000000000000e+02
1.170000000000000000e+02
1.160000000000000000e+02
1.150000000000000000e+02
1.140000000000000000e+02
1.130000000000000000e+02
1.120000000000000000e+02
1.110000000000000000e+02
1.100000000000000000e+02
1.090000000000000000e+02
1.080000000000000000e+02
1.070000000000000000e+02
1.060000000000000000e+02
1.050000000000000000e+02
1.040000000000000000e+02
1.030000000000000000e+02
1.020000000000000000e+02
1.010000000000000000e+02
1.000000000000000000e+02
9.900000000000000000e+01
9.800000000000000000e+01
9.700000000000000000e+01
1.220000000000000000e+02
1.210000000000000000e+02
1.200000000000000000e+02
1.190000000000000000e+02
1.180000000000000000e+02
1.170000000000000000e+02
1.160000000000000000e+02
1.140000000000000000e+02
1.120000000000000000e+02
1.100000000000000000e+02
1.090000000000000000e+02
1.080000000000000000e+02
1.070000000000000000e+02
1.060000000000000000e+02
1.050000000000000000e+02
1.040000000000000000e+02
1.020000000000000000e+02
1.010000000000000000e+02
1.000000000000000000e+02
9.800000000000000000e+01
9.700000000000000000e+01
1.150000000000000000e+02
1.130000000000000000e+02
1.110000000000000000e+02
1.030000000000000000e+02
9.900000000000000000e+01
1.140000000000000000e+02
1.120000000000000000e+02
1.090000000000000000e+02
1.000000000000000000e+02
9.800000000000000000e+01
9.700000000000000000e+01
1.220000000000000000e+02
1.200000000000000000e+02
1.200000000000000000e+02
1.190000000000000000e+02
1.180000000000000000e+02
1.170000000000000000e+02
1.160000000000000000e+02
1.150000000000000000e+02
1.130000000000000000e+02
1.110000000000000000e+02
1.100000000000000000e+02
1.080000000000000000e+02
1.070000000000000000e+02
1.060000000000000000e+02
1.050000000000000000e+02
1.040000000000000000e+02
1.030000000000000000e+02
1.020000000000000000e+02
1.010000000000000000e+02
9.900000000000000000e+01
